{
    "version": "201522",
    "providers" : [
        {
            "title" : "gitlab",
            "type" : "git",
            "https" : "https://gitlab.com/{{repository}}.git{{#config.gitlab.privateToken}}?privateToken={{.}}{{/config.gitlab.privateToken}}",
            "git" : "git@gitlab.com:{{repository}}.git"
        },
        {
            "title" : "github",
            "type" : "git",
            "https" : "https://github.com/{{repository}}.git",
            "git" : "git@github.com:{{repository}}.git"
        }
    ],
    "systemPlugins":[
        "dunpmusic/system-dummy",
        "dunpmusic/system-installation",
        "dunpmusic/system-scripts",
        "dunpmusic/system-manager",
        "dunpmusic/system-cron",
        "dunpmusic/system-websocket",
        "dunpmusic/mysql-auth"
    ],
    "defaultPlugin": "dunpmusic/demo-web-app"
}

